^C:\PROJECT\ZELUN\ZELUN\X64\DEBUG\GRID.OBJ|C:\PROJECT\ZELUN\ZELUN\X64\DEBUG\MAIN.OBJ|C:\PROJECT\ZELUN\ZELUN\X64\DEBUG\MOC_ZELUN.OBJ|C:\PROJECT\ZELUN\ZELUN\X64\DEBUG\QRC_ZELUN.OBJ|C:\PROJECT\ZELUN\ZELUN\X64\DEBUG\ZELUN.OBJ
C:\PROJECT\ZELUN\X64\DEBUG\ZELUN.ILK
C:\PROJECT\ZELUN\X64\DEBUG\ZELUN.EXE
C:\PROJECT\ZELUN\X64\DEBUG\ZELUN.PDB
